{
    "name": "Diving",
    "maps": [
        {
            "name": "Shuttle",
            "id": "50f50e28-bdf2-43a5-be3e-017108243ab5",
            "actions": [
                {
                    "name": "Up",
                    "type": "Button",
                    "id": "b17fa9d7-c31d-4b1f-b509-deb6ab17f857",
                    "expectedControlType": "Button",
                    "processors": "",
                    "interactions": "",
                    "initialStateCheck": false
                },
                {
                    "name": "Down",
                    "type": "Button",
                    "id": "7685ca93-bb2b-4441-9fc2-504df7393b08",
                    "expectedControlType": "Button",
                    "processors": "",
                    "interactions": "",
                    "initialStateCheck": false
                },
                {
                    "name": "Left",
                    "type": "Button",
                    "id": "a5b0e96b-00b1-4ac0-90de-af9886b8b743",
                    "expectedControlType": "Button",
                    "processors": "",
                    "interactions": "",
                    "initialStateCheck": false
                },
                {
                    "name": "Right",
                    "type": "Button",
                    "id": "a259d98f-7880-4f77-b60d-300a50940f8e",
                    "expectedControlType": "Button",
                    "processors": "",
                    "interactions": "",
                    "initialStateCheck": false
                },
                {
                    "name": "Look",
                    "type": "Value",
                    "id": "30286af4-aca2-49f5-9e8d-f7600680656e",
                    "expectedControlType": "Vector2",
                    "processors": "",
                    "interactions": "",
                    "initialStateCheck": true
                }
            ],
            "bindings": [
                {
                    "name": "",
                    "id": "c7ecf185-f2fe-4d0b-afe0-4b4250929000",
                    "path": "<Keyboard>/w",
                    "interactions": "",
                    "processors": "",
                    "groups": "",
                    "action": "Up",
                    "isComposite": false,
                    "isPartOfComposite": false
                },
                {
                    "name": "",
                    "id": "236a3400-3769-443c-a25d-fcf35617e548",
                    "path": "<Keyboard>/upArrow",
                    "interactions": "",
                    "processors": "",
                    "groups": "",
                    "action": "Up",
                    "isComposite": false,
                    "isPartOfComposite": false
                },
                {
                    "name": "",
                    "id": "8da36213-180a-457f-917a-13f1d6be8a5d",
                    "path": "<Keyboard>/s",
                    "interactions": "",
                    "processors": "",
                    "groups": "",
                    "action": "Down",
                    "isComposite": false,
                    "isPartOfComposite": false
                },
                {
                    "name": "",
                    "id": "cde068ec-0130-4185-be0e-3881a1d7f8d9",
                    "path": "<Keyboard>/downArrow",
                    "interactions": "",
                    "processors": "",
                    "groups": "",
                    "action": "Down",
                    "isComposite": false,
                    "isPartOfComposite": false
                },
                {
                    "name": "",
                    "id": "99321420-f68a-4ce2-b801-359dcd0da546",
                    "path": "<Keyboard>/a",
                    "interactions": "",
                    "processors": "",
                    "groups": "",
                    "action": "Left",
                    "isComposite": false,
                    "isPartOfComposite": false
                },
                {
                    "name": "",
                    "id": "42e27826-c135-42d0-8566-2f21a4038294",
                    "path": "<Keyboard>/leftArrow",
                    "interactions": "",
                    "processors": "",
                    "groups": "",
                    "action": "Left",
                    "isComposite": false,
                    "isPartOfComposite": false
                },
                {
                    "name": "",
                    "id": "7551e006-bb53-415e-b742-2e266dd3fc6d",
                    "path": "<Keyboard>/d",
                    "interactions": "",
                    "processors": "",
                    "groups": "",
                    "action": "Right",
                    "isComposite": false,
                    "isPartOfComposite": false
                },
                {
                    "name": "",
                    "id": "c6f2bd0b-3caf-4b1f-9d97-96230e3fe517",
                    "path": "<Keyboard>/rightArrow",
                    "interactions": "",
                    "processors": "",
                    "groups": "",
                    "action": "Right",
                    "isComposite": false,
                    "isPartOfComposite": false
                },
                {
                    "name": "One Modifier",
                    "id": "864c0e56-4034-4ae3-8f31-39aae00f5bd5",
                    "path": "OneModifier",
                    "interactions": "",
                    "processors": "",
                    "groups": "",
                    "action": "Look",
                    "isComposite": true,
                    "isPartOfComposite": false
                },
                {
                    "name": "Modifier",
                    "id": "e4879fbd-fe6a-40b7-ab88-864c4275eb4d",
                    "path": "<Mouse>/rightButton",
                    "interactions": "",
                    "processors": "",
                    "groups": "",
                    "action": "Look",
                    "isComposite": false,
                    "isPartOfComposite": true
                },
                {
                    "name": "Binding",
                    "id": "1f316835-8101-4656-881c-4b7ce23a4db8",
                    "path": "<Mouse>/delta",
                    "interactions": "",
                    "processors": "",
                    "groups": "",
                    "action": "Look",
                    "isComposite": false,
                    "isPartOfComposite": true
                }
            ]
        }
    ],
    "controlSchemes": []
}